^C:\USERS\ARTUR\DESKTOP\X\X-PROXY\SILKROAD-SECURITY\SRC\SILKROADSECURITY\BLOWFISH.CPP
/c /I"C:\USERS\ARTUR\APPDATA\LOCAL\NODE-GYP\CACHE\16.17.1\INCLUDE\NODE" /I"C:\USERS\ARTUR\APPDATA\LOCAL\NODE-GYP\CACHE\16.17.1\SRC" /I"C:\USERS\ARTUR\APPDATA\LOCAL\NODE-GYP\CACHE\16.17.1\DEPS\OPENSSL\CONFIG" /I"C:\USERS\ARTUR\APPDATA\LOCAL\NODE-GYP\CACHE\16.17.1\DEPS\OPENSSL\OPENSSL\INCLUDE" /I"C:\USERS\ARTUR\APPDATA\LOCAL\NODE-GYP\CACHE\16.17.1\DEPS\UV\INCLUDE" /I"C:\USERS\ARTUR\APPDATA\LOCAL\NODE-GYP\CACHE\16.17.1\DEPS\ZLIB" /I"C:\USERS\ARTUR\APPDATA\LOCAL\NODE-GYP\CACHE\16.17.1\DEPS\V8\INCLUDE" /I"C:\USERS\ARTUR\DESKTOP\X\X-PROXY\SILKROAD-SECURITY\NODE_MODULES\NODE-ADDON-API" /IC:\DEV\BOOST_1_80_0 /Z7 /nologo /W3 /WX- /diagnostics:column /Ox /Ob2 /Oi /Ot /Oy /GL /D NODE_GYP_MODULE_NAME=Security /D USING_UV_SHARED=1 /D USING_V8_SHARED=1 /D V8_DEPRECATION_WARNINGS=1 /D V8_DEPRECATION_WARNINGS /D V8_IMMINENT_DEPRECATION_WARNINGS /D _GLIBCXX_USE_CXX11_ABI=1 /D WIN32 /D _CRT_SECURE_NO_DEPRECATE /D _CRT_NONSTDC_NO_DEPRECATE /D _HAS_EXCEPTIONS=0 /D OPENSSL_NO_PINSHARED /D OPENSSL_THREADS /D NAPI_DISABLE_CPP_EXCEPTIONS /D BUILDING_NODE_EXTENSION /D "HOST_BINARY=\"node.exe\"" /D _WINDLL /GF /Gm- /MT /GS /Gy /fp:precise /Zc:wchar_t /Zc:forScope /Zc:inline /GR- /Fo"RELEASE\OBJ\SECURITY\\SRC\SILKROADSECURITY\BLOWFISH.OBJ" /Fd"RELEASE\OBJ\SECURITY\VC143.PDB" /external:W3 /Gd /TP /wd4351 /wd4355 /wd4800 /wd4251 /wd4275 /wd4244 /wd4267 /FC /Zc:__cplusplus  C:\USERS\ARTUR\DESKTOP\X\X-PROXY\SILKROAD-SECURITY\SRC\SILKROADSECURITY\BLOWFISH.CPP
^C:\USERS\ARTUR\DESKTOP\X\X-PROXY\SILKROAD-SECURITY\SRC\SILKROADSECURITY\SILKROAD_SECURITY.CPP
/c /I"C:\USERS\ARTUR\APPDATA\LOCAL\NODE-GYP\CACHE\16.17.1\INCLUDE\NODE" /I"C:\USERS\ARTUR\APPDATA\LOCAL\NODE-GYP\CACHE\16.17.1\SRC" /I"C:\USERS\ARTUR\APPDATA\LOCAL\NODE-GYP\CACHE\16.17.1\DEPS\OPENSSL\CONFIG" /I"C:\USERS\ARTUR\APPDATA\LOCAL\NODE-GYP\CACHE\16.17.1\DEPS\OPENSSL\OPENSSL\INCLUDE" /I"C:\USERS\ARTUR\APPDATA\LOCAL\NODE-GYP\CACHE\16.17.1\DEPS\UV\INCLUDE" /I"C:\USERS\ARTUR\APPDATA\LOCAL\NODE-GYP\CACHE\16.17.1\DEPS\ZLIB" /I"C:\USERS\ARTUR\APPDATA\LOCAL\NODE-GYP\CACHE\16.17.1\DEPS\V8\INCLUDE" /I"C:\USERS\ARTUR\DESKTOP\X\X-PROXY\SILKROAD-SECURITY\NODE_MODULES\NODE-ADDON-API" /IC:\DEV\BOOST_1_80_0 /Z7 /nologo /W3 /WX- /diagnostics:column /Ox /Ob2 /Oi /Ot /Oy /GL /D NODE_GYP_MODULE_NAME=Security /D USING_UV_SHARED=1 /D USING_V8_SHARED=1 /D V8_DEPRECATION_WARNINGS=1 /D V8_DEPRECATION_WARNINGS /D V8_IMMINENT_DEPRECATION_WARNINGS /D _GLIBCXX_USE_CXX11_ABI=1 /D WIN32 /D _CRT_SECURE_NO_DEPRECATE /D _CRT_NONSTDC_NO_DEPRECATE /D _HAS_EXCEPTIONS=0 /D OPENSSL_NO_PINSHARED /D OPENSSL_THREADS /D NAPI_DISABLE_CPP_EXCEPTIONS /D BUILDING_NODE_EXTENSION /D "HOST_BINARY=\"node.exe\"" /D _WINDLL /GF /Gm- /MT /GS /Gy /fp:precise /Zc:wchar_t /Zc:forScope /Zc:inline /GR- /Fo"RELEASE\OBJ\SECURITY\\SRC\SILKROADSECURITY\SILKROAD_SECURITY.OBJ" /Fd"RELEASE\OBJ\SECURITY\VC143.PDB" /external:W3 /Gd /TP /wd4351 /wd4355 /wd4800 /wd4251 /wd4275 /wd4244 /wd4267 /FC /Zc:__cplusplus  C:\USERS\ARTUR\DESKTOP\X\X-PROXY\SILKROAD-SECURITY\SRC\SILKROADSECURITY\SILKROAD_SECURITY.CPP
^C:\USERS\ARTUR\DESKTOP\X\X-PROXY\SILKROAD-SECURITY\SRC\SILKROADSECURITY\STREAM_UTILITY.CPP
/c /I"C:\USERS\ARTUR\APPDATA\LOCAL\NODE-GYP\CACHE\16.17.1\INCLUDE\NODE" /I"C:\USERS\ARTUR\APPDATA\LOCAL\NODE-GYP\CACHE\16.17.1\SRC" /I"C:\USERS\ARTUR\APPDATA\LOCAL\NODE-GYP\CACHE\16.17.1\DEPS\OPENSSL\CONFIG" /I"C:\USERS\ARTUR\APPDATA\LOCAL\NODE-GYP\CACHE\16.17.1\DEPS\OPENSSL\OPENSSL\INCLUDE" /I"C:\USERS\ARTUR\APPDATA\LOCAL\NODE-GYP\CACHE\16.17.1\DEPS\UV\INCLUDE" /I"C:\USERS\ARTUR\APPDATA\LOCAL\NODE-GYP\CACHE\16.17.1\DEPS\ZLIB" /I"C:\USERS\ARTUR\APPDATA\LOCAL\NODE-GYP\CACHE\16.17.1\DEPS\V8\INCLUDE" /I"C:\USERS\ARTUR\DESKTOP\X\X-PROXY\SILKROAD-SECURITY\NODE_MODULES\NODE-ADDON-API" /IC:\DEV\BOOST_1_80_0 /Z7 /nologo /W3 /WX- /diagnostics:column /Ox /Ob2 /Oi /Ot /Oy /GL /D NODE_GYP_MODULE_NAME=Security /D USING_UV_SHARED=1 /D USING_V8_SHARED=1 /D V8_DEPRECATION_WARNINGS=1 /D V8_DEPRECATION_WARNINGS /D V8_IMMINENT_DEPRECATION_WARNINGS /D _GLIBCXX_USE_CXX11_ABI=1 /D WIN32 /D _CRT_SECURE_NO_DEPRECATE /D _CRT_NONSTDC_NO_DEPRECATE /D _HAS_EXCEPTIONS=0 /D OPENSSL_NO_PINSHARED /D OPENSSL_THREADS /D NAPI_DISABLE_CPP_EXCEPTIONS /D BUILDING_NODE_EXTENSION /D "HOST_BINARY=\"node.exe\"" /D _WINDLL /GF /Gm- /MT /GS /Gy /fp:precise /Zc:wchar_t /Zc:forScope /Zc:inline /GR- /Fo"RELEASE\OBJ\SECURITY\\SRC\SILKROADSECURITY\STREAM_UTILITY.OBJ" /Fd"RELEASE\OBJ\SECURITY\VC143.PDB" /external:W3 /Gd /TP /wd4351 /wd4355 /wd4800 /wd4251 /wd4275 /wd4244 /wd4267 /FC /Zc:__cplusplus  C:\USERS\ARTUR\DESKTOP\X\X-PROXY\SILKROAD-SECURITY\SRC\SILKROADSECURITY\STREAM_UTILITY.CPP
^C:\USERS\ARTUR\DESKTOP\X\X-PROXY\SILKROAD-SECURITY\SRC\SECURITY.CPP
/c /I"C:\USERS\ARTUR\APPDATA\LOCAL\NODE-GYP\CACHE\16.17.1\INCLUDE\NODE" /I"C:\USERS\ARTUR\APPDATA\LOCAL\NODE-GYP\CACHE\16.17.1\SRC" /I"C:\USERS\ARTUR\APPDATA\LOCAL\NODE-GYP\CACHE\16.17.1\DEPS\OPENSSL\CONFIG" /I"C:\USERS\ARTUR\APPDATA\LOCAL\NODE-GYP\CACHE\16.17.1\DEPS\OPENSSL\OPENSSL\INCLUDE" /I"C:\USERS\ARTUR\APPDATA\LOCAL\NODE-GYP\CACHE\16.17.1\DEPS\UV\INCLUDE" /I"C:\USERS\ARTUR\APPDATA\LOCAL\NODE-GYP\CACHE\16.17.1\DEPS\ZLIB" /I"C:\USERS\ARTUR\APPDATA\LOCAL\NODE-GYP\CACHE\16.17.1\DEPS\V8\INCLUDE" /I"C:\USERS\ARTUR\DESKTOP\X\X-PROXY\SILKROAD-SECURITY\NODE_MODULES\NODE-ADDON-API" /IC:\DEV\BOOST_1_80_0 /Z7 /nologo /W3 /WX- /diagnostics:column /Ox /Ob2 /Oi /Ot /Oy /GL /D NODE_GYP_MODULE_NAME=Security /D USING_UV_SHARED=1 /D USING_V8_SHARED=1 /D V8_DEPRECATION_WARNINGS=1 /D V8_DEPRECATION_WARNINGS /D V8_IMMINENT_DEPRECATION_WARNINGS /D _GLIBCXX_USE_CXX11_ABI=1 /D WIN32 /D _CRT_SECURE_NO_DEPRECATE /D _CRT_NONSTDC_NO_DEPRECATE /D _HAS_EXCEPTIONS=0 /D OPENSSL_NO_PINSHARED /D OPENSSL_THREADS /D NAPI_DISABLE_CPP_EXCEPTIONS /D BUILDING_NODE_EXTENSION /D "HOST_BINARY=\"node.exe\"" /D _WINDLL /GF /Gm- /MT /GS /Gy /fp:precise /Zc:wchar_t /Zc:forScope /Zc:inline /GR- /Fo"RELEASE\OBJ\SECURITY\\SRC\SECURITY.OBJ" /Fd"RELEASE\OBJ\SECURITY\VC143.PDB" /external:W3 /Gd /TP /wd4351 /wd4355 /wd4800 /wd4251 /wd4275 /wd4244 /wd4267 /FC /Zc:__cplusplus  C:\USERS\ARTUR\DESKTOP\X\X-PROXY\SILKROAD-SECURITY\SRC\SECURITY.CPP
^C:\USERS\ARTUR\DESKTOP\X\X-PROXY\SILKROAD-SECURITY\SRC\MAIN.CPP
/c /I"C:\USERS\ARTUR\APPDATA\LOCAL\NODE-GYP\CACHE\16.17.1\INCLUDE\NODE" /I"C:\USERS\ARTUR\APPDATA\LOCAL\NODE-GYP\CACHE\16.17.1\SRC" /I"C:\USERS\ARTUR\APPDATA\LOCAL\NODE-GYP\CACHE\16.17.1\DEPS\OPENSSL\CONFIG" /I"C:\USERS\ARTUR\APPDATA\LOCAL\NODE-GYP\CACHE\16.17.1\DEPS\OPENSSL\OPENSSL\INCLUDE" /I"C:\USERS\ARTUR\APPDATA\LOCAL\NODE-GYP\CACHE\16.17.1\DEPS\UV\INCLUDE" /I"C:\USERS\ARTUR\APPDATA\LOCAL\NODE-GYP\CACHE\16.17.1\DEPS\ZLIB" /I"C:\USERS\ARTUR\APPDATA\LOCAL\NODE-GYP\CACHE\16.17.1\DEPS\V8\INCLUDE" /I"C:\USERS\ARTUR\DESKTOP\X\X-PROXY\SILKROAD-SECURITY\NODE_MODULES\NODE-ADDON-API" /IC:\DEV\BOOST_1_80_0 /Z7 /nologo /W3 /WX- /diagnostics:column /Ox /Ob2 /Oi /Ot /Oy /GL /D NODE_GYP_MODULE_NAME=Security /D USING_UV_SHARED=1 /D USING_V8_SHARED=1 /D V8_DEPRECATION_WARNINGS=1 /D V8_DEPRECATION_WARNINGS /D V8_IMMINENT_DEPRECATION_WARNINGS /D _GLIBCXX_USE_CXX11_ABI=1 /D WIN32 /D _CRT_SECURE_NO_DEPRECATE /D _CRT_NONSTDC_NO_DEPRECATE /D _HAS_EXCEPTIONS=0 /D OPENSSL_NO_PINSHARED /D OPENSSL_THREADS /D NAPI_DISABLE_CPP_EXCEPTIONS /D BUILDING_NODE_EXTENSION /D "HOST_BINARY=\"node.exe\"" /D _WINDLL /GF /Gm- /MT /GS /Gy /fp:precise /Zc:wchar_t /Zc:forScope /Zc:inline /GR- /Fo"RELEASE\OBJ\SECURITY\\SRC\MAIN.OBJ" /Fd"RELEASE\OBJ\SECURITY\VC143.PDB" /external:W3 /Gd /TP /wd4351 /wd4355 /wd4800 /wd4251 /wd4275 /wd4244 /wd4267 /FC /Zc:__cplusplus  C:\USERS\ARTUR\DESKTOP\X\X-PROXY\SILKROAD-SECURITY\SRC\MAIN.CPP
^C:\USERS\ARTUR\APPDATA\ROAMING\NPM\NODE_MODULES\NODE-GYP\SRC\WIN_DELAY_LOAD_HOOK.CC
/c /I"C:\USERS\ARTUR\APPDATA\LOCAL\NODE-GYP\CACHE\16.17.1\INCLUDE\NODE" /I"C:\USERS\ARTUR\APPDATA\LOCAL\NODE-GYP\CACHE\16.17.1\SRC" /I"C:\USERS\ARTUR\APPDATA\LOCAL\NODE-GYP\CACHE\16.17.1\DEPS\OPENSSL\CONFIG" /I"C:\USERS\ARTUR\APPDATA\LOCAL\NODE-GYP\CACHE\16.17.1\DEPS\OPENSSL\OPENSSL\INCLUDE" /I"C:\USERS\ARTUR\APPDATA\LOCAL\NODE-GYP\CACHE\16.17.1\DEPS\UV\INCLUDE" /I"C:\USERS\ARTUR\APPDATA\LOCAL\NODE-GYP\CACHE\16.17.1\DEPS\ZLIB" /I"C:\USERS\ARTUR\APPDATA\LOCAL\NODE-GYP\CACHE\16.17.1\DEPS\V8\INCLUDE" /I"C:\USERS\ARTUR\DESKTOP\X\X-PROXY\SILKROAD-SECURITY\NODE_MODULES\NODE-ADDON-API" /IC:\DEV\BOOST_1_80_0 /Z7 /nologo /W3 /WX- /diagnostics:column /Ox /Ob2 /Oi /Ot /Oy /GL /D NODE_GYP_MODULE_NAME=Security /D USING_UV_SHARED=1 /D USING_V8_SHARED=1 /D V8_DEPRECATION_WARNINGS=1 /D V8_DEPRECATION_WARNINGS /D V8_IMMINENT_DEPRECATION_WARNINGS /D _GLIBCXX_USE_CXX11_ABI=1 /D WIN32 /D _CRT_SECURE_NO_DEPRECATE /D _CRT_NONSTDC_NO_DEPRECATE /D _HAS_EXCEPTIONS=0 /D OPENSSL_NO_PINSHARED /D OPENSSL_THREADS /D NAPI_DISABLE_CPP_EXCEPTIONS /D BUILDING_NODE_EXTENSION /D "HOST_BINARY=\"node.exe\"" /D _WINDLL /GF /Gm- /MT /GS /Gy /fp:precise /Zc:wchar_t /Zc:forScope /Zc:inline /GR- /Fo"RELEASE\OBJ\SECURITY\\" /Fd"RELEASE\OBJ\SECURITY\VC143.PDB" /external:W3 /Gd /TP /wd4351 /wd4355 /wd4800 /wd4251 /wd4275 /wd4244 /wd4267 /FC /Zc:__cplusplus  C:\USERS\ARTUR\APPDATA\ROAMING\NPM\NODE_MODULES\NODE-GYP\SRC\WIN_DELAY_LOAD_HOOK.CC
