{
	"compilerOptions": {
		"target": "ES6",
		"baseUrl": "./",
		"paths": {
			"@package": ["package.json"],
			"@root/*": ["*"],
			"@lib/*": ["src/lib/*"],
			"@config/*": ["src/config/*"],
			"@models/*": ["src/lib/DataServer/models/*"],
			"@services": ["src/services/index"],
			"@controllers": ["src/lib/Proxy/controllers/index"],
			"@security/*": ["silkroad-security/build/Release/*"],
			"@util/*": ["src/lib/utils/*"]
		}
	},
	"include": ["src/**/*", "silkroad-security/lib/**/*"],
	"exclude": ["node_modules", "bin"]
}
